DEPTH = 4096;
WIDTH = 16;
ADDRESS_RADIX = HEX;
DATA_RADIX = HEX;
CLAVIK=1;
CONTENT BEGIN
0000: 0A00;
0001: 15C1;
0002: C018;
0003: 6440;
0004: 2057;
0005: DFFE;
0006: 83FC;
0007: 2037;
0008: 0004;
0009: 0302;
000A: 0000;
000B: A345;
000C: 0A00;
000D: 15C1;
000E: C028;
000F: 1450;
0010: 25C1;
0011: C046;
0012: 04FC;
0013: 0110;
0014: 005F;
0015: C534;
0016: C2A8;
0017: 00E0;
0018: CB8A;
0019: 0040;
001A: C2A8;
001B: 00E0;
001C: C5C0;
001D: 00E0;
001E: CC3A;
001F: 00E0;
0020: C2A8;
0021: 00E0;
0022: C2AE;
0023: 00E0;
0024: 15C0;
0025: 0020;
0026: 15C1;
0027: 0022;
0028: 1050;
0029: 0A10;
002A: 2451;
002B: 2017;
002C: 0100;
002D: 05FA;
002E: 15C0;
002F: 0298;
0030: 15C1;
0031: C06E;
0032: 1450;
0033: 25C1;
0034: C0BA;
0035: 04FC;
0036: 0127;
0037: 0000;
0038: 0000;
0039: 0001;
003A: 0000;
003B: 8FAC;
003C: C65C;
003D: FD5C;
003E: 0001;
003F: FD58;
0040: FD58;
0041: FD54;
0042: FD52;
0043: FD50;
0044: FD4E;
0045: 080A;
0046: 0050;
0047: FF70;
0048: FF74;
0049: FD44;
004A: 0000;
004B: 0336;
004C: 02E6;
004D: 0336;
004E: 02E6;
004F: 3FFE;
0050: 0017;
0051: 0000;
0052: 0000;
0053: FD2E;
0054: 0000;
0055: 4391;
0056: 903A;
0057: 2020;
0058: 2066;
0059: 206F;
005A: 206B;
005B: 2061;
005C: 916C;
005D: 008E;
005E: 15C6;
005F: 0240;
0060: 1DE6;
0061: 3F40;
0062: 15F7;
0063: C0DE;
0064: 3F3A;
0065: 15C0;
0066: 0800;
0067: 0BD0;
0068: 2017;
0069: C000;
006A: 87FC;
006B: 15F7;
006C: BFFE;
006D: 41EC;
006E: 0105;
006F: E5C0;
0070: 0004;
0071: 1037;
0072: 41E2;
0073: 2596;
0074: 15B7;
0075: 3F18;
0076: 15C1;
0077: 0100;
0078: 0A11;
0079: 2057;
007A: 0240;
007B: 87FC;
007C: 15F7;
007D: D0A4;
007E: 3F32;
007F: 15F7;
0080: 00A0;
0081: 3F2E;
0082: 15F7;
0083: D142;
0084: 3F36;
0085: 15F7;
0086: 00E0;
0087: 3F32;
0088: 005F;
0089: C534;
008A: 0000;
008B: 0000;
008C: D2D6;
008D: 5CE2;
008E: D382;
008F: 5BFF;
0090: D396;
0091: 1812;
0092: D566;
0093: 5CD2;
0094: D4DC;
0095: 1780;
0096: D43C;
0097: 17C3;
0098: D428;
0099: 7D24;
009A: CD4C;
009B: 16EB;
009C: DCB2;
009D: 0161;
009E: DEBE;
009F: 0165;
00A0: DED6;
00A1: 0159;
00A2: DEC6;
00A3: 015B;
00A4: DE82;
00A5: 015C;
00A6: DEE6;
00A7: 0164;
00A8: DF1C;
00A9: 016E;
00AA: DD48;
00AB: 016A;
00AC: DDF0;
00AD: 016B;
00AE: DEA2;
00AF: 0168;
00B0: CD50;
00B1: 181A;
00B2: D2B4;
00B3: 180A;
00B4: D28E;
00B5: 1722;
00B6: D262;
00B7: 17F2;
00B8: D5E6;
00B9: 0170;
00BA: D100;
00BB: 1848;
00BC: D1A2;
00BD: 1822;
00BE: D1AA;
00BF: 173F;
00C0: CD54;
00C1: 17B2;
00C2: D156;
00C3: 622B;
00C4: D14E;
00C5: 172B;
00C6: C412;
00C7: C42C;
00C8: C4FE;
00C9: C4D4;
00CA: D07E;
00CB: D062;
00CC: C59A;
00CD: C55A;
00CE: C3E8;
00CF: C438;
00D0: C482;
00D1: C53C;
00D2: C856;
00D3: C310;
00D4: C552;
00D5: CA7E;
00D6: C85E;
00D7: C4A2;
00D8: C4B8;
00D9: CAC4;
00DA: C4C6;
00DB: C4AA;
00DC: C406;
00DD: CB5A;
00DE: C9F2;
00DF: C73C;
00E0: CAF4;
00E1: C648;
00E2: C65A;
00E3: C86C;
00E4: C6C0;
00E5: C8D0;
00E6: C624;
00E7: DAF4;
00E8: C602;
00E9: C648;
00EA: C2A2;
00EB: D720;
00EC: C700;
00ED: C648;
00EE: D17C;
00EF: C648;
00F0: C310;
00F1: C654;
00F2: C8D0;
00F3: CAD2;
00F4: D662;
00F5: DC7E;
00F6: C682;
00F7: C66A;
00F8: D7BE;
00F9: D7D2;
00FA: D7EC;
00FB: D814;
00FC: D824;
00FD: D839;
00FE: D855;
00FF: D88C;
0100: D8AF;
0101: D8DA;
0102: D8ED;
0103: D912;
0104: D92B;
0105: D941;
0106: D961;
0107: D979;
0108: D999;
0109: D9C2;
010A: D9EC;
010B: DA09;
010C: DA30;
010D: DA6B;
010E: DA85;
010F: DA92;
0110: DAAD;
0111: DAC9;
0112: C8FE;
0113: C8F4;
0114: C8E8;
0115: C8EA;
0116: C662;
0117: C666;
0118: CB68;
0119: CB72;
011A: CB54;
011B: CB84;
011C: D212;
011D: CB58;
011E: CB58;
011F: C662;
0120: C666;
0121: CB4A;
0122: CB30;
0123: CB14;
0124: CB28;
0125: CB14;
0126: C3A2;
0127: C852;
0128: 2B20;
0129: 2F2D;
012A: 5E2A;
012B: 5B28;
012C: 293C;
012D: 3E5D;
012E: 3B2C;
012F: 3D0D;
0130: 0F0E;
0131: 2500;
0132: 2122;
0133: 2423;
0134: 8C80;
0135: 8E8D;
0136: 4000;
0137: 8F80;
0138: 0A7F;
0139: 1900;
013A: 151A;
013B: 1413;
013C: 090B;
013D: 030C;
013E: 5F0D;
013F: 1200;
0140: 1716;
0141: 1D1C;
0142: 1F1E;
0143: 0811;
0144: 0206;
0145: 0040;
0146: C7C8;
0147: C7DC;
0148: C7E8;
0149: C7F8;
014A: C80E;
014B: C824;
014C: C7BE;
014D: C836;
014E: C534;
014F: C790;
0150: C83C;
0151: 0005;
0152: 0077;
0153: 038A;
0154: 15C6;
0155: 0240;
0156: 89AB;
0157: 8D36;
0158: 0002;
0159: 1176;
015A: 0002;
015B: 1385;
015C: 1D4E;
015D: FFFE;
015E: 8C8E;
015F: 8102;
0160: 0077;
0161: 0116;
0162: 8704;
0163: 8C4E;
0164: 65CE;
0165: 380C;
0166: 1787;
0167: 15F7;
0168: FF70;
0169: 3FE4;
016A: 15F7;
016B: FF74;
016C: 3FE0;
016D: 15F7;
016E: FF00;
016F: 3FDC;
0170: 0102;
0171: 899E;
0172: 0115;
0173: 890F;
0174: 89A2;
0175: 3F8E;
0176: 45CE;
0177: FFE0;
0178: 9382;
0179: 09F7;
017A: 0CAC;
017B: 89A2;
017C: 4120;
017D: 8954;
017E: 1DC1;
017F: 3FA2;
0180: 1C41;
0181: 0002;
0182: 8996;
0183: 89A2;
0184: 0A0D;
0185: 890E;
0186: 0077;
0187: 17CC;
0188: 15C6;
0189: 0240;
018A: 15F7;
018B: C65C;
018C: 3F88;
018D: 15F7;
018E: FF00;
018F: 3F86;
0190: 890F;
0191: 0A37;
0192: 3FA8;
0193: 0A37;
0194: 3F94;
0195: 8D17;
0196: 0000;
0197: 53DF;
0198: FF70;
0199: 15C0;
019A: 0240;
019B: 1005;
019C: 1177;
019D: 3F84;
019E: 2DD7;
019F: 3F78;
01A0: FF68;
01A1: 0309;
01A2: 95D0;
01A3: 0080;
01A4: 2017;
01A5: 028F;
01A6: 07FB;
01A7: 892A;
01A8: 1140;
01A9: 89B2;
01AA: 010C;
01AB: 8986;
01AC: A117;
01AD: 000A;
01AE: 03FC;
01AF: 898E;
01B0: 2DD7;
01B1: 3F5C;
01B2: 028F;
01B3: 0412;
01B4: A117;
01B5: 008E;
01B6: 02F4;
01B7: 1143;
01B8: 898C;
01B9: 899C;
01BA: 89AC;
01BB: C38E;
01BC: 09F7;
01BD: 02B6;
01BE: 1DC3;
01BF: 3F22;
01C0: 64C3;
01C1: 03C6;
01C2: 10F7;
01C3: 3F1A;
01C4: 24D3;
01C5: 01F2;
01C6: 89A5;
01C7: 15F7;
01C8: FF00;
01C9: 3F12;
01CA: 8992;
01CB: 8020;
01CC: 899C;
01CD: 09F7;
01CE: 02D2;
01CF: 0101;
01D0: 94C4;
01D1: 898E;
01D2: A5C4;
01D3: 008E;
01D4: 02FB;
01D5: 0A80;
01D6: 45C0;
01D7: 0001;
01D8: 1037;
01D9: 3F0C;
01DA: 2037;
01DB: 3F0C;
01DC: 8701;
01DD: 899E;
01DE: 0004;
01DF: 1081;
01E0: 6241;
01E1: EDC1;
01E2: 3EFC;
01E3: 107F;
01E4: 3EF8;
01E5: 65C1;
01E6: 0002;
01E7: E04A;
01E8: 1DF7;
01E9: 3EEC;
01EA: 3EEC;
01EB: 019C;
01EC: 8983;
01ED: 8C4E;
01EE: 9136;
01EF: 0001;
01F0: 9384;
01F1: 00CE;
01F2: 0077;
01F3: 011E;
01F4: 0977;
01F5: 0166;
01F6: 810A;
01F7: 0BD5;
01F8: 89AC;
01F9: C402;
01FA: A5C4;
01FB: 002E;
01FC: 0304;
01FD: 0BD5;
01FE: A5C4;
01FF: 0046;
0200: 020D;
0201: 1345;
0202: 0085;
0203: A117;
0204: 0030;
0205: 0508;
0206: A117;
0207: 003A;
0208: 0151;
0209: 1541;
020A: A109;
020B: 0304;
020C: 8BD1;
020D: 02FC;
020E: 0BD5;
020F: 0085;
0210: ED41;
0211: FFFE;
0212: 0CC1;
0213: 6341;
0214: 1245;
0215: 0085;
0216: 1541;
0217: A244;
0218: 03E8;
0219: 8BD1;
021A: 02FC;
021B: 01F2;
021C: 8A37;
021D: 3E7B;
021E: 0A01;
021F: 899C;
0220: 810E;
0221: A5C4;
0222: 0041;
0223: 030B;
0224: 89AC;
0225: C47E;
0226: 1166;
0227: 09F7;
0228: 05A8;
0229: 0E01;
022A: 1585;
022B: 65F7;
022C: 0008;
022D: 3E50;
022E: 0E39;
022F: 1077;
0230: 3E50;
0231: 030A;
0232: 81B9;
0233: 8BC1;
0234: 0309;
0235: 8BF7;
0236: 3E45;
0237: 03B4;
0238: D5F7;
0239: 0080;
023A: 3E41;
023B: 0085;
023C: 8AB7;
023D: 3E3B;
023E: 0085;
023F: 0E3D;
0240: 01EA;
0241: 15C3;
0242: 02D0;
0243: 10C2;
0244: 10F7;
0245: 3E18;
0246: 2CF7;
0247: 0002;
0248: 3E20;
0249: 82B7;
024A: 0304;
024B: 10C2;
024C: 64C3;
024D: 03B3;
024E: 01F5;
024F: 24D3;
0250: 01BD;
0251: 9544;
0252: 8984;
0253: 9544;
0254: 012A;
0255: A117;
0256: 0088;
0257: 82A9;
0258: A117;
0259: 0086;
025A: 87A6;
025B: 01B2;
025C: 15C4;
025D: 0030;
025E: 208D;
025F: 05AE;
0260: E342;
0261: 0A84;
0262: 01FB;
0263: ADF3;
0264: 3DE9;
0265: 0003;
0266: 029A;
0267: 0BC3;
0268: 0398;
0269: 01A4;
026A: 898A;
026B: 45C4;
026C: FF80;
026D: 03FC;
026E: 25C4;
026F: 0003;
0270: 0329;
0271: 8982;
0272: C270;
0273: C58C;
0274: 8982;
0275: C250;
0276: C4F0;
0277: 0103;
0278: 65C1;
0279: 3E30;
027A: 9044;
027B: 2DD7;
027C: 3DBE;
027D: FF68;
027E: 0347;
027F: 9126;
0280: 8002;
0281: 9D04;
0282: C2D0;
0283: D5C4;
0284: 0080;
0285: 8988;
0286: A5C4;
0287: 008D;
0288: 0206;
0289: 95F7;
028A: 0050;
028B: 3D9E;
028C: A384;
028D: 8701;
028E: 890A;
028F: 2DD7;
0290: 3D98;
0291: FF74;
0292: 0205;
0293: 8AF7;
0294: 3D8C;
0295: 0202;
0296: 89A2;
0297: 0A0D;
0298: 9584;
0299: 0085;
029A: 15C6;
029B: 0240;
029C: 899E;
029D: 8981;
029E: 15C2;
029F: 0405;
02A0: 1066;
02A1: 15E6;
02A2: FF07;
02A3: 0E03;
02A4: 0E3E;
02A5: 2596;
02A6: 8920;
02A7: 0085;
02A8: 898C;
02A9: A5C4;
02AA: 0080;
02AB: 03FC;
02AC: 0119;
02AD: 1DC0;
02AE: 3D62;
02AF: A5C4;
02B0: 007F;
02B1: 030E;
02B2: A5C4;
02B3: 0040;
02B4: 030F;
02B5: A5C4;
02B6: 005F;
02B7: 0305;
02B8: 9110;
02B9: 2DC0;
02BA: 3D52;
02BB: 8208;
02BC: 8995;
02BD: 1380;
02BE: 89A2;
02BF: 0A0D;
02C0: 200E;
02C1: 0702;
02C2: 0AC0;
02C3: 895C;
02C4: 1037;
02C5: 3D34;
02C6: 9104;
02C7: 0085;
02C8: 8BF7;
02C9: 3D12;
02CA: 02FB;
02CB: 8A77;
02CC: 3D0D;
02CD: 94C4;
02CE: A5C4;
02CF: 003F;
02D0: 03F7;
02D1: 0BF7;
02D2: 3D00;
02D3: 02F2;
02D4: 01AA;
02D5: 14D4;
02D6: 20F7;
02D7: 3D14;
02D8: 83FC;
02D9: E037;
02DA: 3D0C;
02DB: 0BF7;
02DC: 3D14;
02DD: 0202;
02DE: E037;
02DF: 3D00;
02E0: 8994;
02E1: CC6A;
02E2: 94C4;
02E3: A117;
02E4: 008E;
02E5: 02FC;
02E6: 0A83;
02E7: 45C3;
02E8: 0001;
02E9: 1DC4;
02EA: 3CCE;
02EB: 630A;
02EC: 65CA;
02ED: 0002;
02EE: 10C0;
02EF: E100;
02F0: 15C1;
02F1: 02D0;
02F2: 1042;
02F3: 03E1;
02F4: 6441;
02F5: 2083;
02F6: 8704;
02F7: 2043;
02F8: 86F9;
02F9: 600A;
02FA: 01F7;
02FB: 2043;
02FC: 87F5;
02FD: E00A;
02FE: 01F3;
02FF: 898C;
0300: 0108;
0301: 899C;
0302: 1126;
0303: 89B0;
0304: 89A6;
0305: 0BF7;
0306: 3CA0;
0307: 810A;
0308: 0305;
0309: A117;
030A: 008C;
030B: 87F3;
030C: 820C;
030D: 898C;
030E: A117;
030F: 008C;
0310: 02FB;
0311: 898C;
0312: 8992;
0313: 8994;
0314: C680;
0315: 1DF7;
0316: 3C76;
0317: 3C72;
0318: 898C;
0319: A117;
031A: 008E;
031B: 0311;
031C: 9101;
031D: 81FA;
031E: A5C4;
031F: 0041;
0320: 0603;
0321: A5C4;
0322: 0058;
0323: 0401;
0324: 8989;
0325: 898C;
0326: 80FE;
0327: 0CC1;
0328: 0079;
0329: C13E;
032A: 15F7;
032B: C65C;
032C: 3C48;
032D: 0087;
032E: 39A2;
032F: 0000;
0330: 0000;
0331: 0BD6;
0332: 01E5;
0333: 0BD6;
0334: 0087;
0335: 09F7;
0336: 0320;
0337: 01E1;
0338: 1DC5;
0339: 3C4E;
033A: 0A15;
033B: 1055;
033C: 0303;
033D: 1177;
033E: 3C42;
033F: 0087;
0340: 898B;
0341: 8992;
0342: 1126;
0343: 10E6;
0344: 8994;
0345: C6A6;
0346: 1CC1;
0347: FFFE;
0348: 0301;
0349: 8996;
034A: 94C4;
034B: 8984;
034C: A5C4;
034D: 008E;
034E: 02FB;
034F: 1DC3;
0350: 3C02;
0351: 64C3;
0352: 030B;
0353: 8BF7;
0354: 3C0D;
0355: 8108;
0356: 89A8;
0357: C6B4;
0358: 8998;
0359: 01EA;
035A: B5F7;
035B: 0001;
035C: 3BFD;
035D: 02FA;
035E: 0077;
035F: 0206;
0360: 8990;
0361: C6FC;
0362: C6DE;
0363: C3D8;
0364: A5C4;
0365: 0041;
0366: 0203;
0367: 89A0;
0368: 899E;
0369: 899A;
036A: A5C4;
036B: 0054;
036C: 0202;
036D: 89A0;
036E: 899A;
036F: 8992;
0370: 0BC1;
0371: 03CE;
0372: 0004;
0373: 8BF7;
0374: 3BCD;
0375: 81F2;
0376: 0AB7;
0377: 3BDE;
0378: 0BC3;
0379: 03EE;
037A: 89A8;
037B: C6D0;
037C: 8998;
037D: 01F4;
037E: 899E;
037F: 0199;
0380: 8992;
0381: 8994;
0382: C680;
0383: 09F7;
0384: FF66;
0385: 89A2;
0386: 0A0D;
0387: 15C0;
0388: 0240;
0389: 94C4;
038A: 9110;
038B: A5C4;
038C: 008E;
038D: 0309;
038E: 8984;
038F: A5C4;
0390: 0090;
0391: 0303;
0392: A5C4;
0393: 0091;
0394: 02F4;
0395: 897F;
0396: 01F2;
0397: 0AC0;
0398: 1003;
0399: 95D3;
039A: 0080;
039B: 20D7;
039C: 028F;
039D: 07FB;
039E: 898A;
039F: 8BC4;
03A0: 03FD;
03A1: 8980;
03A2: C273;
03A3: C28C;
03A4: 8982;
03A5: C27F;
03A6: C73C;
03A7: 8982;
03A8: C270;
03A9: C73C;
03AA: 2017;
03AB: 028D;
03AC: 0507;
03AD: 25C5;
03AE: C354;
03AF: 032E;
03B0: 95C8;
03B1: 008E;
03B2: 0077;
03B3: 00DA;
03B4: 8982;
03B5: C250;
03B6: C770;
03B7: 0103;
03B8: 65C1;
03B9: 3E30;
03BA: 9044;
03BB: 9110;
03BC: 8002;
03BD: 9D04;
03BE: C2D0;
03BF: 8988;
03C0: A5C4;
03C1: 008E;
03C2: 0303;
03C3: A5C4;
03C4: 008F;
03C5: 02D8;
03C6: 897F;
03C7: 01D6;
03C8: 1003;
03C9: 15C0;
03CA: 028D;
03CB: A5E0;
03CC: 0080;
03CD: 03FD;
03CE: 0A80;
03CF: 95C8;
03D0: 008E;
03D1: 15C4;
03D2: 0019;
03D3: 20C0;
03D4: 8603;
03D5: 0A83;
03D6: 8988;
03D7: 01FB;
03D8: 89A2;
03D9: 0A0D;
03DA: 25C5;
03DB: C354;
03DC: 0246;
03DD: 0085;
03DE: 89A5;
03DF: 15C4;
03E0: 0019;
03E1: 15C3;
03E2: 0008;
03E3: 0102;
03E4: 15C3;
03E5: 0001;
03E6: 2017;
03E7: 028D;
03E8: 04B5;
03E9: 0A80;
03EA: 8988;
03EB: 0AC3;
03EC: 02F9;
03ED: 01B0;
03EE: 2017;
03EF: 0240;
03F0: 07AD;
03F1: 0AC0;
03F2: 8988;
03F3: 01AA;
03F4: 15C4;
03F5: 001A;
03F6: 2017;
03F7: 0240;
03F8: 07A5;
03F9: 0AC0;
03FA: 8988;
03FB: 01FA;
03FC: 15C3;
03FD: 028D;
03FE: 8988;
03FF: 15C4;
0400: 028E;
0401: 98E4;
0402: 2003;
0403: 05FD;
0404: 95C8;
0405: 0080;
0406: 0112;
0407: 1003;
0408: 8988;
0409: 1004;
040A: 0A84;
040B: 9513;
040C: 25C4;
040D: 028D;
040E: 04FC;
040F: 95CB;
0410: 0080;
0411: 0107;
0412: 1003;
0413: 95D3;
0414: 0080;
0415: 20D7;
0416: 028F;
0417: 07FB;
0418: 8988;
0419: 0077;
041A: FF06;
041B: 8988;
041C: 0077;
041D: FAD4;
041E: 89A2;
041F: 0A0D;
0420: 01FB;
0421: 89A2;
0422: 0A0D;
0423: 15C3;
0424: 0240;
0425: 94C4;
0426: 8980;
0427: C26B;
0428: C24C;
0429: 898E;
042A: 01FA;
042B: 1CF7;
042C: 0002;
042D: 3A56;
042E: 0085;
042F: 1DF7;
0430: 3A64;
0431: 3A5E;
0432: 15F7;
0433: FD2E;
0434: 3A66;
0435: 0085;
0436: 8992;
0437: 1126;
0438: 10E6;
0439: 1DE6;
043A: 3A2C;
043B: 2197;
043C: 00A0;
043D: 0401;
043E: 8993;
043F: 8994;
0440: C884;
0441: 0107;
0442: 8BF7;
0443: 3A2F;
0444: 8122;
0445: 89A8;
0446: C8CE;
0447: 8998;
0448: 24D3;
0449: 9DE6;
044A: 3A21;
044B: 1DE6;
044C: 3A0A;
044D: 09F7;
044E: FD8C;
044F: 1580;
0450: 95B7;
0451: 3A13;
0452: 810E;
0453: 1DC3;
0454: 39F8;
0455: 64C3;
0456: 030A;
0457: 10F7;
0458: 39F2;
0459: B5F7;
045A: 0001;
045B: 39FF;
045C: 02EA;
045D: AC33;
045E: 0003;
045F: 0003;
0460: 03E6;
0461: 15B7;
0462: 39DC;
0463: 1583;
0464: 1584;
0465: 0077;
0466: FD64;
0467: 898D;
0468: 09F7;
0469: 0126;
046A: 899C;
046B: A5C4;
046C: 008F;
046D: 0206;
046E: 10A6;
046F: 89B0;
0470: 0E34;
0471: 8980;
0472: C269;
0473: C22A;
0474: 898F;
0475: 89B0;
0476: 8980;
0477: C269;
0478: C224;
0479: 01FA;
047A: 15E6;
047B: 4000;
047C: 15E6;
047D: 0001;
047E: 0103;
047F: 29A6;
0480: 0E33;
0481: 89B0;
0482: 29A6;
0483: 0E33;
0484: 10E6;
0485: 1DE6;
0486: 3994;
0487: 09F7;
0488: FD1E;
0489: 15B7;
048A: 398C;
048B: 1583;
048C: 1D82;
048D: 0008;
048E: 0BE6;
048F: 118E;
0490: 65CE;
0491: 0006;
0492: 0E01;
0493: 0E0C;
0494: 0E31;
0495: 0BD6;
0496: 0E13;
0497: 0BF7;
0498: 397C;
0499: 07EA;
049A: 65C6;
049B: 000A;
049C: 0087;
049D: 9105;
049E: A117;
049F: 0089;
04A0: 8701;
04A1: 0A05;
04A2: A14E;
04A3: 8213;
04A4: 9580;
04A5: 1001;
04A6: 0307;
04A7: 0E03;
04A8: 2596;
04A9: 8CC1;
04AA: 8CC1;
04AB: 8CC1;
04AC: 45C1;
04AD: FFC0;
04AE: 65C1;
04AF: 0E01;
04B0: 0E80;
04B1: 15C2;
04B2: 02A8;
04B3: 0E31;
04B4: 6140;
04B5: 02EC;
04B6: 0087;
04B7: A157;
04B8: 0086;
04B9: 0409;
04BA: 1CA6;
04BB: 0002;
04BC: 14A6;
04BD: 1166;
04BE: 0977;
04BF: FBD0;
04C0: 8007;
04C1: 89AA;
04C2: C9B8;
04C3: 1126;
04C4: 15E6;
04C5: C9EC;
04C6: 898C;
04C7: 0A26;
04C8: 8990;
04C9: C9A2;
04CA: C9BA;
04CB: C9CA;
04CC: 09F7;
04CD: 0066;
04CE: 899C;
04CF: 810A;
04D0: 010B;
04D1: 15C2;
04D2: C65E;
04D3: A117;
04D4: 0082;
04D5: 03C7;
04D6: 87E7;
04D7: A117;
04D8: 0089;
04D9: 87E7;
04DA: 89AA;
04DB: C93A;
04DC: 8991;
04DD: 95F7;
04DE: 0010;
04DF: 38F7;
04E0: 0E3D;
04E1: 15C2;
04E2: 02A8;
04E3: 0E31;
04E4: 01E9;
04E5: 0A05;
04E6: 0CC5;
04E7: 0C45;
04E8: 6105;
04E9: 898C;
04EA: 80FB;
04EB: 1126;
04EC: 1166;
04ED: 89B0;
04EE: 1585;
04EF: 15C1;
04F0: C18E;
04F1: 0BE1;
04F2: 0308;
04F3: 2845;
04F4: 02FC;
04F5: 09E9;
04F6: 89A6;
04F7: 0E38;
04F8: 01E8;
04F9: 114E;
04FA: 01CB;
04FB: 8985;
04FC: 8987;
04FD: 8990;
04FE: C8E8;
04FF: C9F6;
0500: C9F6;
0501: 15E6;
0502: 8000;
0503: 910E;
0504: 0A26;
0505: 898C;
0506: 8104;
0507: 9136;
0508: 0003;
0509: 898C;
050A: 80FE;
050B: 89AA;
050C: CA3C;
050D: 1126;
050E: 89B0;
050F: 0E39;
0510: 1076;
0511: 0002;
0512: A117;
0513: 008C;
0514: 0204;
0515: 89B0;
0516: 0E39;
0517: 9076;
0518: 0003;
0519: 89A6;
051A: 0103;
051B: 15E6;
051C: 8026;
051D: 1026;
051E: 1DC0;
051F: 3884;
0520: 1DC5;
0521: 3884;
0522: 1001;
0523: 2965;
0524: E141;
0525: 1382;
0526: 6D82;
0527: 0002;
0528: 00C2;
0529: 4042;
052A: 45C2;
052B: 0007;
052C: 6002;
052D: 1081;
052E: 0977;
052F: 003A;
0530: 1002;
0531: 1045;
0532: 0977;
0533: 0032;
0534: 1DE6;
0535: 385C;
0536: 1002;
0537: 0BF2;
0538: 0006;
0539: 0321;
053A: 65C2;
053B: 0008;
053C: 208E;
053D: 87F9;
053E: 8997;
053F: 1DC1;
0540: 3846;
0541: 0A21;
0542: 2077;
0543: 383A;
0544: 8303;
0545: 2077;
0546: 3832;
0547: 82F9;
0548: 65C1;
0549: 0050;
054A: 1077;
054B: 382C;
054C: 0085;
054D: 2D8A;
054E: 0004;
054F: 0307;
0550: 0BCA;
0551: 0309;
0552: 65C2;
0553: 0008;
0554: 208E;
0555: 87F7;
0556: 0085;
0557: 2DB2;
0558: 0002;
0559: 0002;
055A: 01F6;
055B: 1D92;
055C: 0004;
055D: 1D92;
055E: 0002;
055F: 65C6;
0560: 0006;
0561: 0087;
0562: 0BD6;
0563: 65CE;
0564: 0003;
0565: A116;
0566: 0295;
0567: 898C;
0568: 004D;
0569: 89AE;
056A: 09F7;
056B: FEB6;
056C: 8920;
056D: 1DC2;
056E: 37D6;
056F: 25F7;
0570: 8000;
0571: 37CA;
0572: 0205;
0573: 0AB7;
0574: 37C2;
0575: 00B1;
0576: 0C37;
0577: 37BE;
0578: 0E3E;
0579: 01EF;
057A: 89AE;
057B: 09F7;
057C: FF00;
057D: 893A;
057E: 10E6;
057F: 9126;
0580: 15C3;
0581: 0018;
0582: E0C6;
0583: 1185;
0584: 10A6;
0585: 95D5;
0586: 0030;
0587: 1177;
0588: 37AE;
0589: 0A02;
058A: 8986;
058B: 8982;
058C: C269;
058D: CB34;
058E: 0AC3;
058F: 0601;
0590: 89A1;
0591: 8980;
0592: C26D;
0593: C242;
0594: 898E;
0595: 81F4;
0596: 13C2;
0597: 01F2;
0598: 0BC2;
0599: 03F0;
059A: 95C4;
059B: 008C;
059C: 898E;
059D: 93F7;
059E: 3768;
059F: 1143;
05A0: 8BE3;
05A1: 89B0;
05A2: 0E34;
05A3: 8A37;
05A4: 375C;
05A5: 65C6;
05A6: 001A;
05A7: 9584;
05A8: 1583;
05A9: 01D0;
05AA: 89A2;
05AB: 0A0D;
05AC: 898C;
05AD: 8980;
05AE: C263;
05AF: C230;
05B0: A5C4;
05B1: 0088;
05B2: 83F9;
05B3: 0085;
05B4: 898C;
05B5: 8992;
05B6: 1077;
05B7: 3744;
05B8: 01F4;
05B9: 94C4;
05BA: A5C4;
05BB: 008E;
05BC: 03F0;
05BD: A5C4;
05BE: 0022;
05BF: 03EC;
05C0: 8984;
05C1: 01F7;
05C2: 89A2;
05C3: 000D;
05C4: 01E7;
05C5: 1166;
05C6: 1126;
05C7: 10E6;
05C8: 10A6;
05C9: 1066;
05CA: 1026;
05CB: 1D80;
05CC: 000C;
05CD: 9C05;
05CE: FFFE;
05CF: 8001;
05D0: 1045;
05D1: 9166;
05D2: A5CE;
05D3: 0038;
05D4: 070A;
05D5: 45C5;
05D6: FFF8;
05D7: 9D45;
05D8: CC02;
05D9: 6147;
05DA: 9481;
05DB: 9485;
05DC: 00C5;
05DD: 8A05;
05DE: 1284;
05DF: 9380;
05E0: 10A6;
05E1: 1DC2;
05E2: 36E8;
05E3: 1DC3;
05E4: 36E6;
05E5: 8A03;
05E6: 8C80;
05E7: 8C80;
05E8: 45C0;
05E9: FFF1;
05EA: 09F8;
05EB: CCA4;
05EC: 09F7;
05ED: 0090;
05EE: 10F7;
05EF: 36D0;
05F0: 10B7;
05F1: 36CA;
05F2: 2596;
05F3: 013B;
05F4: 0BD6;
05F5: 1380;
05F6: 1088;
05F7: 1DC4;
05F8: 36BA;
05F9: 00C3;
05FA: 90E0;
05FB: 9120;
05FC: 8001;
05FD: 0A44;
05FE: 00C4;
05FF: 03F2;
0600: 8999;
0601: 0056;
0602: 6A72;
0603: 607A;
0604: 9C80;
0605: 1202;
0606: 65F6;
0607: 0002;
0608: 000E;
0609: 01D0;
060A: 65F6;
060B: 0004;
060C: 000E;
060D: 1002;
060E: 01CB;
060F: 1182;
0610: 65C2;
0611: 0012;
0612: 01C7;
0613: 2492;
0614: 10B6;
0615: 0006;
0616: 01C3;
0617: 1D82;
0618: 0012;
0619: 01C0;
061A: 6200;
061B: 1002;
061C: 01E9;
061D: 0BF7;
061E: 3680;
061F: 0209;
0620: 1166;
0621: 1126;
0622: 10E6;
0623: 10A6;
0624: 1066;
0625: 1026;
0626: 11B7;
0627: 366E;
0628: 0000;
0629: 1DC6;
062A: 3668;
062B: 0A37;
062C: 3664;
062D: 13DF;
062E: FF70;
062F: 1580;
0630: 1581;
0631: 1582;
0632: 1583;
0633: 1584;
0634: 1585;
0635: 0002;
0636: 0BC2;
0637: 0202;
0638: 0BC3;
0639: 032A;
063A: 0AF7;
063B: 3634;
063C: 0CC3;
063D: 0C42;
063E: 8505;
063F: 80FA;
0640: 35C2;
0641: 7FFF;
0642: 02F7;
0643: 00B1;
0644: 0C02;
0645: 0C03;
0646: 0AB7;
0647: 361C;
0648: 65C3;
0649: 0080;
064A: 0B42;
064B: 85F8;
064C: 0087;
064D: 1077;
064E: 360E;
064F: 1102;
0650: 1143;
0651: 0087;
0652: CC9A;
0653: CCE6;
0654: CCE0;
0655: CDC4;
0656: CD64;
0657: CDF6;
0658: CBE8;
0659: CCD2;
065A: CD44;
065B: CD26;
065C: CDA8;
065D: CDBC;
065E: CDC0;
065F: CFB2;
0660: CE58;
0661: CD3C;
0662: 65C6;
0663: 0006;
0664: 0A37;
0665: 35E0;
0666: 0A02;
0667: 0A03;
0668: 0087;
0669: 9D81;
066A: 0004;
066B: 45C1;
066C: FFF8;
066D: 0CC1;
066E: 0079;
066F: CCB4;
0670: 0B04;
0671: 0B05;
0672: 0B84;
0673: 0BC4;
0674: 032D;
0675: 0BC2;
0676: 03D6;
0677: 15C0;
0678: 02AC;
0679: E201;
067A: 0708;
067B: 25C1;
067C: 001E;
067D: 0713;
067E: 0C82;
067F: 0C03;
0680: 0A88;
0681: 0AC1;
0682: 06FB;
0683: 25C1;
0684: FFE3;
0685: 0444;
0686: 0C84;
0687: 0C05;
0688: 0A81;
0689: 07FC;
068A: 0C82;
068B: 0C03;
068C: 0A88;
068D: 6143;
068E: 0B42;
068F: 6102;
0690: 0139;
0691: 6048;
0692: 01BC;
0693: 15C1;
0694: 02AC;
0695: 0BC9;
0696: 0707;
0697: 25C9;
0698: 001F;
0699: 0706;
069A: 0C82;
069B: 0C03;
069C: 0A89;
069D: 01F9;
069E: 09F7;
069F: FF88;
06A0: 10F6;
06A1: 0008;
06A2: 0087;
06A3: 65C6;
06A4: 000A;
06A5: 0189;
06A6: 0E3B;
06A7: 0087;
06A8: 0E3A;
06A9: 0087;
06AA: 1DE6;
06AB: 3556;
06AC: 0E3B;
06AD: 0E39;
06AE: 0BD6;
06AF: 8001;
06B0: 0E3C;
06B1: 0087;
06B2: 09F7;
06B3: 00C2;
06B4: 03AD;
06B5: 0C82;
06B6: 0C03;
06B7: 8603;
06B8: 6141;
06B9: 0B40;
06BA: 6100;
06BB: 0C00;
06BC: 0C01;
06BD: 0ACE;
06BE: 02F6;
06BF: 1002;
06C0: 1043;
06C1: E596;
06C2: 8003;
06C3: 0B02;
06C4: 0B03;
06C5: 0B82;
06C6: 65C3;
06C7: 0001;
06C8: 0B42;
06C9: 0BD6;
06CA: 10C5;
06CB: 1084;
06CC: 8003;
06CD: 0B04;
06CE: 0B05;
06CF: 0B84;
06D0: 0202;
06D1: 00C5;
06D2: 0391;
06D3: 0087;
06D4: 10A6;
06D5: 03F3;
06D6: 15F7;
06D7: 0001;
06D8: 34FA;
06D9: 15C2;
06DA: 4000;
06DB: 0A03;
06DC: 0BCE;
06DD: 01E4;
06DE: 0BC2;
06DF: 80F3;
06E0: 09F7;
06E1: FFC2;
06E2: 0B01;
06E3: 0A81;
06E4: 09F7;
06E5: 005E;
06E6: 0311;
06E7: E143;
06E8: 0B82;
06E9: 2084;
06EA: 8103;
06EB: E102;
06EC: 00B1;
06ED: 0103;
06EE: 6143;
06EF: 0B42;
06F0: 00A1;
06F1: 0C41;
06F2: 0C40;
06F3: 0CC3;
06F4: 0C42;
06F5: 0ACE;
06F6: 02F0;
06F7: 01C7;
06F8: 899D;
06F9: 0C84;
06FA: 0A81;
06FB: 25C1;
06FC: 000F;
06FD: 8716;
06FE: 02FA;
06FF: 1126;
0700: 8113;
0701: 03D4;
0702: 10A6;
0703: 039F;
0704: 1DE6;
0705: 34A0;
0706: 10E6;
0707: 1585;
0708: 1581;
0709: 1584;
070A: 0ACE;
070B: 03BA;
070C: 1126;
070D: 1066;
070E: 1166;
070F: 09F7;
0710: FE52;
0711: 09F7;
0712: FF3E;
0713: 01F3;
0714: 899F;
0715: 10A6;
0716: 03EC;
0717: 45CE;
0718: 7FFF;
0719: 610E;
071A: 6077;
071B: 3474;
071C: 0A00;
071D: 0A01;
071E: 15E6;
071F: 001F;
0720: 0BC2;
0721: 0403;
0722: 0B02;
0723: 0B03;
0724: 0B82;
0725: 0BC4;
0726: 0403;
0727: 0B04;
0728: 0B05;
0729: 0B84;
072A: 007E;
072B: 0004;
072C: 0A26;
072D: 15C4;
072E: 0020;
072F: 0BC2;
0730: 0604;
0731: 0319;
0732: 0E3C;
0733: 65C4;
0734: 000D;
0735: 15C1;
0736: 02AC;
0737: 0A8E;
0738: 2257;
0739: 0004;
073A: 0509;
073B: 0604;
073C: ADD7;
073D: 3433;
073E: 0050;
073F: 050B;
0740: 0E25;
0741: 68FD;
0742: 6666;
0743: 01F3;
0744: 0BC9;
0745: 0605;
0746: 0ACE;
0747: 0E25;
0748: 0004;
0749: 5000;
074A: 01ED;
074B: 0A26;
074C: 8984;
074D: 15C2;
074E: 02A8;
074F: 15C0;
0750: 0007;
0751: 0E31;
0752: 0E39;
0753: 1066;
0754: 0E3C;
0755: 0E09;
0756: 0E20;
0757: CE90;
0758: 0AC0;
0759: 06F7;
075A: 0A0E;
075B: 0A26;
075C: 9D8E;
075D: 001E;
075E: 15E6;
075F: FF00;
0760: 0E03;
0761: 0E25;
0762: 000E;
0763: 6400;
0764: 0E39;
0765: 2596;
0766: 1185;
0767: 9D83;
0768: 001D;
0769: 1D82;
076A: 0010;
076B: 20C1;
076C: 0602;
076D: 10C1;
076E: 0AC1;
076F: 1044;
0770: 15C0;
0771: 0006;
0772: 20C2;
0773: 0401;
0774: 0A03;
0775: 0BC3;
0776: 0309;
0777: 6081;
0778: 20C1;
0779: 0401;
077A: 10C1;
077B: 2040;
077C: 0403;
077D: 1040;
077E: 0401;
077F: 0A00;
0780: 1001;
0781: 0A40;
0782: 0CC0;
0783: 15E6;
0784: 000E;
0785: 614E;
0786: 6380;
0787: 0A8D;
0788: 2140;
0789: 0202;
078A: 65CD;
078B: 0005;
078C: 25CD;
078D: 000A;
078E: 0603;
078F: E5D5;
0790: 000A;
0791: 01F5;
0792: 0BD5;
0793: 2140;
0794: 03F5;
0795: 2385;
0796: 06FB;
0797: 0302;
0798: 0A82;
0799: 0A81;
079A: 09F7;
079B: 0006;
079C: 65C6;
079D: 0014;
079E: 0167;
079F: 10C0;
07A0: 031B;
07A1: E100;
07A2: 2002;
07A3: 0403;
07A4: 1080;
07A5: 2083;
07A6: 0615;
07A7: 0A04;
07A8: 2002;
07A9: 060C;
07AA: 0AC2;
07AB: 0AC1;
07AC: 0501;
07AD: 1944;
07AE: 09F7;
07AF: 004A;
07B0: 0AC3;
07B1: 0726;
07B2: 0AC0;
07B3: 02F3;
07B4: 892E;
07B5: 01F1;
07B6: 2017;
07B7: 0001;
07B8: 07F5;
07B9: 15C4;
07BA: FFF0;
07BB: 01F2;
07BC: 10A6;
07BD: 0A02;
07BE: 15C0;
07BF: 0001;
07C0: 15C3;
07C1: 0007;
07C2: 09F7;
07C3: FFC6;
07C4: 8945;
07C5: 1582;
07C6: 0403;
07C7: 0B02;
07C8: 892D;
07C9: 0101;
07CA: 892B;
07CB: 89A4;
07CC: 0064;
07CD: A117;
07CE: 0030;
07CF: 0301;
07D0: 8984;
07D1: 89A4;
07D2: 000A;
07D3: 8984;
07D4: 1084;
07D5: 65C4;
07D6: 0030;
07D7: 8984;
07D8: 0087;
07D9: 1D83;
07DA: 000C;
07DB: 09F7;
07DC: 0058;
07DD: 0A02;
07DE: A117;
07DF: 002E;
07E0: 0202;
07E1: 09F7;
07E2: 005C;
07E3: 10A6;
07E4: B5F7;
07E5: 0010;
07E6: 32E9;
07E7: 030F;
07E8: A117;
07E9: 0045;
07EA: 020C;
07EB: 0E30;
07EC: 02A8;
07ED: 898C;
07EE: 09F7;
07EF: 0032;
07F0: 0BC1;
07F1: 8101;
07F2: 0E3C;
07F3: 0E39;
07F4: 604E;
07F5: 0E00;
07F6: 02A8;
07F7: 15C2;
07F8: CE82;
07F9: 1581;
07FA: 8003;
07FB: 0B01;
07FC: 15C2;
07FD: CE90;
07FE: 0AC1;
07FF: 0502;
0800: 0E21;
0801: 01FC;
0802: 1136;
0803: 000E;
0804: 10F6;
0805: 000C;
0806: 0BD6;
0807: 0077;
0808: FBD2;
0809: 0E3F;
080A: A117;
080B: 0081;
080C: 0304;
080D: A117;
080E: 0082;
080F: 0202;
0810: 0A41;
0811: 898C;
0812: 8BC4;
0813: 81C4;
0814: A117;
0815: 002E;
0816: 03C1;
0817: 89AC;
0818: D056;
0819: B5F7;
081A: 0010;
081B: 327F;
081C: 03BB;
081D: A117;
081E: 0045;
081F: 03B8;
0820: 45C4;
0821: FFE0;
0822: 1126;
0823: 15E6;
0824: 000F;
0825: 0E20;
0826: CE90;
0827: 0E0B;
0828: 2596;
0829: 0A82;
082A: 01E6;
082B: 45C4;
082C: FFF0;
082D: 02F4;
082E: 0E20;
082F: CE90;
0830: 01F8;
0831: 1DC4;
0832: 3252;
0833: 25C4;
0834: FF70;
0835: 0316;
0836: 35CC;
0837: 8080;
0838: 03FD;
0839: 813C;
083A: 9D04;
083B: 0002;
083C: 0ABF;
083D: 323C;
083E: 0085;
083F: 1126;
0840: 1DC4;
0841: 3236;
0842: 8BCC;
0843: 80FE;
0844: 45CE;
0845: 0080;
0846: 93B4;
0847: 0002;
0848: 55CE;
0849: 0080;
084A: 1584;
084B: 0085;
084C: 1DC4;
084D: 3220;
084E: 81FD;
084F: 0A77;
0850: 321A;
0851: 01EA;
0852: 17E6;
0853: FF72;
0854: 45CE;
0855: 0080;
0856: A397;
0857: 0001;
0858: 0209;
0859: 17CE;
085A: FF72;
085B: 45CE;
085C: 0080;
085D: A397;
085E: 0010;
085F: 02F9;
0860: 0BD6;
0861: 011D;
0862: A397;
0863: 0004;
0864: 0202;
0865: 0077;
0866: 0648;
0867: A397;
0868: 0005;
0869: 0202;
086A: 0077;
086B: 0578;
086C: A397;
086D: 0018;
086E: 0201;
086F: 89B3;
0870: A397;
0871: 0003;
0872: 0204;
0873: 8A77;
0874: 31B4;
0875: 0203;
0876: 8981;
0877: 8A37;
0878: 31AC;
0879: 0BF7;
087A: 31C6;
087B: 8101;
087C: 8981;
087D: 15B7;
087E: 31BE;
087F: 0002;
0880: 15C5;
0881: 02AC;
0882: 15C2;
0883: 02AA;
0884: 12A6;
0885: 8001;
0886: 89A3;
0887: 0317;
0888: 18A6;
0889: 8C8A;
088A: 8B4A;
088B: 15F2;
088C: 60D0;
088D: 0002;
088E: 0E03;
088F: 0E19;
0890: 0E09;
0891: 0ACD;
0892: A28D;
0893: 0208;
0894: 2CB7;
0895: 0002;
0896: 3180;
0897: 0204;
0898: ACB7;
0899: 0001;
089A: 317B;
089B: 8602;
089C: 0E31;
089D: 01F0;
089E: 0BD6;
089F: 0BD6;
08A0: 0087;
08A1: 65F7;
08A2: 0100;
08A3: 3182;
08A4: 0B77;
08A5: 3180;
08A6: 0002;
08A7: 0E00;
08A8: 02CA;
08A9: 0E38;
08AA: 0087;
08AB: 15F7;
08AC: 0017;
08AD: 316E;
08AE: 0A37;
08AF: 316C;
08B0: 0087;
08B1: 0CC1;
08B2: 1C42;
08B3: 2E88;
08B4: 1C4A;
08B5: 2E7E;
08B6: 25CA;
08B7: FF68;
08B8: 0204;
08B9: 35DA;
08BA: 0880;
08BB: 0201;
08BC: 0AAA;
08BD: 898C;
08BE: 899C;
08BF: 8982;
08C0: D188;
08C1: D162;
08C2: 0077;
08C3: F4AA;
08C4: 4B52;
08C5: 5450;
08C6: 004C;
08C7: FF68;
08C8: FF70;
08C9: FF6C;
08CA: FF74;
08CB: FF4C;
08CC: 02B8;
08CD: 02B8;
08CE: 02BA;
08CF: 02BA;
08D0: 02BA;
08D1: 0E3C;
08D2: 0E0D;
08D3: EC01;
08D4: 6487;
08D5: 29A6;
08D6: 0A02;
08D7: 0E33;
08D8: 0E23;
08D9: 0BDF;
08DA: 02AC;
08DB: 0509;
08DC: 9382;
08DD: 95CE;
08DE: FFFF;
08DF: 0C82;
08E0: 8701;
08E1: 8CCE;
08E2: 0A82;
08E3: 0E03;
08E4: 0E23;
08E5: 0E3C;
08E6: 0E33;
08E7: 0E1D;
08E8: 0005;
08E9: 7800;
08EA: 0E08;
08EB: D20E;
08EC: 0E1D;
08ED: 0004;
08EE: 6000;
08EF: 0E23;
08F0: 0E08;
08F1: D20E;
08F2: 0ADF;
08F3: 02AC;
08F4: 0E23;
08F5: 0E08;
08F6: D20E;
08F7: 0AC2;
08F8: 05A5;
08F9: 0E33;
08FA: 0E23;
08FB: 0E33;
08FC: 0E23;
08FD: 0E13;
08FE: 65DF;
08FF: 0003;
0900: 02AC;
0901: 01F3;
0902: 8931;
0903: 8909;
0904: 8937;
0905: 8908;
0906: 8981;
0907: 0001;
0908: 4000;
0909: 1DC5;
090A: 30AE;
090B: 0BCD;
090C: 0207;
090D: 65C5;
090E: 0008;
090F: 2177;
0910: 30A6;
0911: 87F9;
0912: 0BD6;
0913: 0087;
0914: 89A2;
0915: 2053;
0916: 9544;
0917: 8984;
0918: 9544;
0919: 8101;
091A: 8984;
091B: 8928;
091C: 0BD5;
091D: 0308;
091E: 0BE5;
091F: 9542;
0920: 09F7;
0921: FD48;
0922: 892C;
0923: 9542;
0924: 09F7;
0925: FD40;
0926: 89A2;
0927: 3D29;
0928: 1142;
0929: 0E01;
092A: 1DC2;
092B: 305C;
092C: 0E3E;
092D: 89A2;
092E: 0A0D;
092F: 2555;
0930: 01DE;
0931: 15C2;
0932: 02A0;
0933: 15C5;
0934: 000C;
0935: 0BF7;
0936: 3040;
0937: 0302;
0938: 15CA;
0939: 8FAC;
093A: 1281;
093B: 0C41;
093C: 8101;
093D: 0A41;
093E: 0C41;
093F: 0C41;
0940: 0C4A;
0941: 0AC5;
0942: 06F7;
0943: 12B7;
0944: 3024;
0945: 0087;
0946: 89B0;
0947: 0E39;
0948: 1126;
0949: 1044;
094A: 8106;
094B: 8988;
094C: 1584;
094D: A117;
094E: 008C;
094F: 03F6;
0950: 0087;
0951: 898A;
0952: 45C4;
0953: FF80;
0954: 1137;
0955: 3002;
0956: 15F7;
0957: 000F;
0958: 2FFA;
0959: 01F2;
095A: 0977;
095B: F19E;
095C: 0A00;
095D: 09F7;
095E: F778;
095F: 10A6;
0960: 89B0;
0961: 0E34;
0962: 1126;
0963: 95C4;
0964: 008E;
0965: 09F7;
0966: F5A0;
0967: 1584;
0968: 1582;
0969: 0E01;
096A: 0087;
096B: 0A00;
096C: 0E30;
096D: 0290;
096E: 0E3B;
096F: 0E10;
0970: D20E;
0971: 0BDF;
0972: 02AE;
0973: 0701;
0974: 89A9;
0975: 0E00;
0976: 0290;
0977: 0E20;
0978: 0290;
0979: 0E30;
097A: 0294;
097B: 0E15;
097C: 88FA;
097D: 51EB;
097E: 0BDF;
097F: 02AE;
0980: 801E;
0981: 0E00;
0982: 0294;
0983: 0E25;
0984: B7FC;
0985: 5B6D;
0986: 29A6;
0987: 0E33;
0988: 0E05;
0989: CDFD;
098A: 4CCC;
098B: 0E0B;
098C: 0E20;
098D: 0294;
098E: 0E33;
098F: 0E05;
0990: 55FE;
0991: 5555;
0992: 0E0B;
0993: 0E20;
0994: 0294;
0995: 0E33;
0996: 0E00;
0997: D20E;
0998: 0E0B;
0999: 0E20;
099A: 0290;
099B: 2596;
099C: 0BC0;
099D: 021D;
099E: 0087;
099F: 0A80;
09A0: 0E00;
09A1: 0290;
09A2: 0E08;
09A3: D20E;
09A4: 0E30;
09A5: 02A8;
09A6: 09F7;
09A7: FDB0;
09A8: 0E30;
09A9: 0294;
09AA: 0E00;
09AB: D20E;
09AC: 0E10;
09AD: 0290;
09AE: 0E30;
09AF: 02A8;
09B0: 09F7;
09B1: FD9C;
09B2: 0E08;
09B3: 0294;
09B4: 0E30;
09B5: 0294;
09B6: 0E00;
09B7: 0290;
09B8: 0E18;
09B9: 0294;
09BA: 01B1;
09BB: 0E25;
09BC: 0002;
09BD: 4000;
09BE: 0AC0;
09BF: 02FB;
09C0: 0087;
09C1: 09F7;
09C2: FF50;
09C3: 0E30;
09C4: 0290;
09C5: 0E05;
09C6: F501;
09C7: 6487;
09C8: 0E10;
09C9: 0290;
09CA: 0087;
09CB: 0A00;
09CC: 0E30;
09CD: 0290;
09CE: 0E20;
09CF: 0290;
09D0: 0E30;
09D1: 0294;
09D2: 0E10;
09D3: D2F8;
09D4: 0BDF;
09D5: 02AE;
09D6: 801E;
09D7: 0E00;
09D8: 0294;
09D9: 0E25;
09DA: E8FC;
09DB: 6E86;
09DC: 29A6;
09DD: 0E33;
09DE: 0E05;
09DF: 44FE;
09E0: 4444;
09E1: 0E0B;
09E2: 0E20;
09E3: 0294;
09E4: 0E33;
09E5: 0E05;
09E6: 55FF;
09E7: 5555;
09E8: 0E0B;
09E9: 0E20;
09EA: 0294;
09EB: 0E33;
09EC: 0E00;
09ED: D20E;
09EE: 0E0B;
09EF: 0E20;
09F0: 0290;
09F1: 2596;
09F2: 0BC0;
09F3: 0208;
09F4: 0087;
09F5: 0A80;
09F6: 0E00;
09F7: 0290;
09F8: 0E25;
09F9: 0000;
09FA: 4000;
09FB: 01D0;
09FC: 0E30;
09FD: 0294;
09FE: 0E20;
09FF: 0294;
0A00: 0E30;
0A01: 0290;
0A02: 0E00;
0A03: D20E;
0A04: 0E10;
0A05: 0290;
0A06: 0E0D;
0A07: A1BE;
0A08: 5E56;
0A09: 0E30;
0A0A: 0290;
0A0B: 0E00;
0A0C: 0294;
0A0D: 0E20;
0A0E: D378;
0A0F: 0E18;
0A10: 0290;
0A11: 0AC0;
0A12: 02E9;
0A13: 0087;
0A14: 0BF7;
0A15: 2E82;
0A16: 0601;
0A17: 89A7;
0A18: 09F7;
0A19: 0008;
0A1A: 0E25;
0A1B: FBFF;
0A1C: 6F2D;
0A1D: 0087;
0A1E: 0A00;
0A1F: 0BDF;
0A20: 02AE;
0A21: 0601;
0A22: 89A7;
0A23: 29A6;
0A24: 0E33;
0A25: 0E10;
0A26: D20E;
0A27: 0BDF;
0A28: 02AE;
0A29: 033E;
0A2A: 8005;
0A2B: 0E00;
0A2C: D20E;
0A2D: 0E1B;
0A2E: 0E33;
0A2F: 0A80;
0A30: 15DF;
0A31: 000F;
0A32: 02AC;
0A33: 939F;
0A34: 02AE;
0A35: 8A1F;
0A36: 02AF;
0A37: 0ADF;
0A38: 02AE;
0A39: 0A1F;
0A3A: 02B0;
0A3B: 95CE;
0A3C: 0001;
0A3D: 0E38;
0A3E: 0E25;
0A3F: 0C00;
0A40: 58B9;
0A41: 0E30;
0A42: 0290;
0A43: 0E03;
0A44: 0E10;
0A45: D20E;
0A46: 0E33;
0A47: 0E25;
0A48: DDF9;
0A49: 9653;
0A4A: 0E0D;
0A4B: C4FC;
0A4C: 49E8;
0A4D: 0E23;
0A4E: 0E0D;
0A4F: F9FD;
0A50: 9E61;
0A51: 0E23;
0A52: 0E0D;
0A53: C1FE;
0A54: 55D6;
0A55: 0E23;
0A56: 0E0D;
0A57: 89FE;
0A58: 84BE;
0A59: 0E23;
0A5A: 0E0D;
0A5B: C8FF;
0A5C: 54F0;
0A5D: 0E23;
0A5E: 0E0D;
0A5F: 40FF;
0A60: 8008;
0A61: 0E23;
0A62: 0E0D;
0A63: E200;
0A64: 7FFF;
0A65: 0E23;
0A66: 0E08;
0A67: 0290;
0A68: 2596;
0A69: 0BC0;
0A6A: 0201;
0A6B: 0087;
0A6C: 0E3C;
0A6D: 0087;
0A6E: 0A26;
0A6F: 0BDF;
0A70: 02AE;
0A71: 8002;
0A72: 0E3B;
0A73: 0A8E;
0A74: 0E25;
0A75: 1D01;
0A76: 5C55;
0A77: 0E30;
0A78: 0294;
0A79: 0E39;
0A7A: 1066;
0A7B: 0E38;
0A7C: 0E30;
0A7D: 0290;
0A7E: 0E00;
0A7F: 0294;
0A80: 0E10;
0A81: 0290;
0A82: 0E30;
0A83: 0294;
0A84: 0E20;
0A85: 0294;
0A86: 0E30;
0A87: 0290;
0A88: 0E0D;
0A89: E107;
0A8A: 576A;
0A8B: 29A6;
0A8C: 0E33;
0A8D: 0E05;
0A8E: E30A;
0A8F: B2C0;
0A90: 0E1B;
0A91: 0E10;
0A92: 0294;
0A93: 0E0D;
0A94: 0204;
0A95: 4FA3;
0A96: 0E33;
0A97: 0E05;
0A98: 6FFC;
0A99: 46FA;
0A9A: 0E20;
0A9B: 0290;
0A9C: 0E0B;
0A9D: 0E33;
0A9E: 0E33;
0A9F: 0E00;
0AA0: 0294;
0AA1: 0E1B;
0AA2: 0E20;
0AA3: D378;
0AA4: 0E08;
0AA5: D20E;
0AA6: 2596;
0AA7: 659F;
0AA8: 02AC;
0AA9: 0BD6;
0AAA: 0601;
0AAB: 0087;
0AAC: 0E30;
0AAD: 0294;
0AAE: 0E00;
0AAF: D20E;
0AB0: 0E18;
0AB1: 0294;
0AB2: 0087;
0AB3: 0A00;
0AB4: 0E30;
0AB5: 0290;
0AB6: 0E20;
0AB7: 0290;
0AB8: 0E30;
0AB9: 0294;
0ABA: 0E10;
0ABB: D2F8;
0ABC: 0BDF;
0ABD: 02AE;
0ABE: 801D;
0ABF: 0E00;
0AC0: 0294;
0AC1: 0E25;
0AC2: 92FE;
0AC3: 4924;
0AC4: 29A6;
0AC5: 0E33;
0AC6: 0E05;
0AC7: 66FE;
0AC8: 6666;
0AC9: 0E13;
0ACA: 0E20;
0ACB: 0294;
0ACC: 0E33;
0ACD: 0E00;
0ACE: D3CC;
0ACF: 0E13;
0AD0: 0E20;
0AD1: 0294;
0AD2: 0E33;
0AD3: 0E00;
0AD4: D20E;
0AD5: 0E13;
0AD6: 0E20;
0AD7: 0290;
0AD8: 2596;
0AD9: 0BC0;
0ADA: 0213;
0ADB: 0087;
0ADC: 0A80;
0ADD: 0E00;
0ADE: 0294;
0ADF: 0E08;
0AE0: D20E;
0AE1: 0E30;
0AE2: 02A8;
0AE3: 09F7;
0AE4: FB36;
0AE5: 0E08;
0AE6: D20E;
0AE7: 0E30;
0AE8: 0294;
0AE9: 0E00;
0AEA: 0290;
0AEB: 0E18;
0AEC: 0294;
0AED: 01C6;
0AEE: 0E20;
0AEF: D378;
0AF0: 0AC0;
0AF1: 02FC;
0AF2: 0087;
0AF3: 0E39;
0AF4: 0CC1;
0AF5: 1066;
0AF6: 0A26;
0AF7: A5C4;
0AF8: 008C;
0AF9: 021B;
0AFA: 898C;
0AFB: 8114;
0AFC: A117;
0AFD: 0030;
0AFE: 870C;
0AFF: A117;
0B00: 0037;
0B01: 8209;
0B02: 45C4;
0B03: FFF8;
0B04: 0CCE;
0B05: 0CCE;
0B06: 0CCE;
0B07: 510E;
0B08: 01F1;
0B09: 104D;
0B0A: 0087;
0B0B: 09F7;
0B0C: F3E0;
0B0D: 0E01;
0B0E: 0E39;
0B0F: 104E;
0B10: A5C4;
0B11: 008C;
0B12: 0202;
0B13: 89B0;
0B14: 0E39;
0B15: 1585;
0B16: 1582;
0B17: 810C;
0B18: 0609;
0B19: 1345;
0B1A: 0A45;
0B1B: 4141;
0B1C: 1077;
0B1D: 2C72;
0B1E: 15F7;
0B1F: 000F;
0B20: 2C6A;
0B21: 0087;
0B22: 1341;
0B23: 01F8;
0B24: 25C5;
0B25: 02E6;
0B26: 87E2;
0B27: 899B;
0B28: 15FF;
0B29: FF74;
0B2A: 2C72;
0B2B: 09F7;
0B2C: 008A;
0B2D: 55DF;
0B2E: 0040;
0B2F: FF70;
0B30: 0103;
0B31: 15FF;
0B32: FF6C;
0B33: 2C60;
0B34: 15C0;
0B35: 02D0;
0B36: 1DC1;
0B37: 2C52;
0B38: 0AC1;
0B39: 0A04;
0B3A: 09F7;
0B3B: 0056;
0B3C: 0A02;
0B3D: 0A05;
0B3E: 0A04;
0B3F: 0A84;
0B40: 09F7;
0B41: 004A;
0B42: 0A04;
0B43: 09F7;
0B44: 0044;
0B45: 1044;
0B46: E004;
0B47: 65C4;
0B48: 0007;
0B49: 09F7;
0B4A: 0038;
0B4B: 00C4;
0B4C: 09F7;
0B4D: 0032;
0B4E: 1004;
0B4F: 09F7;
0B50: 002C;
0B51: 00C4;
0B52: 09F7;
0B53: 0026;
0B54: 2001;
0B55: 8204;
0B56: 9404;
0B57: 09F7;
0B58: 001C;
0B59: 01FA;
0B5A: 0B05;
0B5B: 1144;
0B5C: 09F7;
0B5D: 0012;
0B5E: 0BC2;
0B5F: 0206;
0B60: 0A82;
0B61: 15C0;
0B62: C2E2;
0B63: 15C1;
0B64: C2E1;
0B65: 01D7;
0B66: 899A;
0B67: 1FC3;
0B68: 2BF6;
0B69: 35CB;
0B6A: 8080;
0B6B: 03FD;
0B6C: 8104;
0B6D: 9133;
0B6E: 0002;
0B6F: 6105;
0B70: 0087;
0B71: 89B1;
0B72: 0A1F;
0B73: FF70;
0B74: 15C4;
0B75: 000A;
0B76: 8988;
0B77: 8BDF;
0B78: FF70;
0B79: 80FD;
0B7A: 97C4;
0B7B: FF72;
0B7C: 45C4;
0B7D: 0080;
0B7E: A5C4;
0B7F: 0003;
0B80: 0201;
0B81: 8981;
0B82: A5C4;
0B83: 0007;
0B84: 02F2;
0B85: 8BDF;
0B86: FF74;
0B87: 80FD;
0B88: 911F;
0B89: FF76;
0B8A: 0087;
0B8B: 15C5;
0B8C: FF70;
0B8D: 09F7;
0B8E: FFC6;
0B8F: 0102;
0B90: 15C5;
0B91: FF68;
0B92: 1DC6;
0B93: 2BA0;
0B94: 0A0E;
0B95: 0A00;
0B96: 09F7;
0B97: 004A;
0B98: 8AC3;
0B99: 02FB;
0B9A: 09F7;
0B9B: 0042;
0B9C: 09F7;
0B9D: 0058;
0B9E: 1102;
0B9F: E5C2;
0BA0: 0004;
0BA1: 0BCE;
0BA2: 020B;
0BA3: 108E;
0BA4: E5CE;
0BA5: 0002;
0BA6: 65CE;
0BA7: 02D0;
0BA8: 13B7;
0BA9: 2B6E;
0BAA: 65CE;
0BAB: 0050;
0BAC: 13B7;
0BAD: 2B68;
0BAE: 25C2;
0BAF: 0002;
0BB0: 0321;
0BB1: 09F7;
0BB2: 002E;
0BB3: 1101;
0BB4: 0A82;
0BB5: 09F7;
0BB6: 000C;
0BB7: 0203;
0BB8: 8BC0;
0BB9: 03DB;
0BBA: 89AD;
0BBB: 90D1;
0BBC: 01F8;
0BBD: 8A8D;
0BBE: 35CD;
0BBF: 8080;
0BC0: 03FD;
0BC1: 8107;
0BC2: 9D43;
0BC3: 0002;
0BC4: 60C0;
0BC5: 45C3;
0BC6: FF00;
0BC7: 0AC2;
0BC8: 0087;
0BC9: 89AF;
0BCA: 09F7;
0BCB: FFE2;
0BCC: 10C4;
0BCD: 09F7;
0BCE: FFDC;
0BCF: 00C3;
0BD0: 50C4;
0BD1: 0087;
0BD2: 09F7;
0BD3: FFEC;
0BD4: 09F7;
0BD5: FFCE;
0BD6: 8D17;
0BD7: 0000;
0BD8: 8BC0;
0BD9: 02E0;
0BDA: 0C84;
0BDB: 8601;
0BDC: 0000;
0BDD: 0CC4;
0BDE: 004C;
0BDF: 6F67;
0BE0: 6F74;
0BE1: 6E77;
0BE2: 736F;
0BE3: 7874;
0BE4: 6B20;
0BE5: 7220;
0BE6: 6261;
0BE7: 746F;
0BE8: 0065;
0BE9: 656E;
0BEA: 7270;
0BEB: 7761;
0BEC: 6C69;
0BED: 6E78;
0BEE: 6A79;
0BEF: 6E20;
0BF0: 6D6F;
0BF1: 7265;
0BF2: 7320;
0BF3: 7274;
0BF4: 6B6F;
0BF5: 0069;
0BF6: 656E;
0BF7: 7270;
0BF8: 7761;
0BF9: 6C69;
0BFA: 6E78;
0BFB: 656F;
0BFC: 6920;
0BFD: 716D;
0BFE: 6620;
0BFF: 6E75;
0C00: 636B;
0C01: 6969;
0C02: 6920;
0C03: 696C;
0C04: 7020;
0C05: 7265;
0C06: 6D65;
0C07: 6E65;
0C08: 6F6E;
0C09: 006A;
0C0A: 656E;
0C0B: 6170;
0C0C: 6E72;
0C0D: 6579;
0C0E: 7320;
0C0F: 6F6B;
0C10: 6B62;
0C11: 0069;
0C12: 656E;
0C13: 7270;
0C14: 7761;
0C15: 6C69;
0C16: 6E78;
0C17: 7161;
0C18: 6B20;
0C19: 6D6F;
0C1A: 6E61;
0C1B: 6164;
0C1C: 6E00;
0C1D: 7365;
0C1E: 7D75;
0C1F: 7365;
0C20: 7774;
0C21: 6075;
0C22: 697D;
0C23: 206A;
0C24: 6F6E;
0C25: 656D;
0C26: 2072;
0C27: 7473;
0C28: 6F72;
0C29: 696B;
0C2A: 6E00;
0C2B: 7365;
0C2C: 7D75;
0C2D: 7365;
0C2E: 7774;
0C2F: 6075;
0C30: 697D;
0C31: 206A;
0C32: 6F6E;
0C33: 656D;
0C34: 2072;
0C35: 7267;
0C36: 7075;
0C37: 7970;
0C38: 6920;
0C39: 696C;
0C3A: 7320;
0C3B: 7274;
0C3C: 6B6F;
0C3D: 2069;
0C3E: 2077;
0C3F: 706F;
0C40: 7265;
0C41: 7461;
0C42: 726F;
0C43: 2065;
0C44: 440F;
0C45: 004F;
0C46: 656E;
0C47: 7270;
0C48: 7761;
0C49: 6C69;
0C4A: 6E78;
0C4B: 6A79;
0C4C: 6620;
0C4D: 726F;
0C4E: 616D;
0C4F: 0F74;
0C50: 5320;
0C51: 5445;
0C52: 200E;
0C53: 6C69;
0C54: 0F69;
0C55: 4620;
0C56: 524F;
0C57: 6400;
0C58: 6F77;
0C59: 6E6A;
0C5A: 6A6F;
0C5B: 6920;
0C5C: 696C;
0C5D: 7020;
0C5E: 6F72;
0C5F: 7570;
0C60: 657D;
0C61: 6E6E;
0C62: 6A79;
0C63: 7320;
0C64: 6D69;
0C65: 6F77;
0C66: 206C;
0C67: 2077;
0C68: 7977;
0C69: 6172;
0C6A: 6576;
0C6B: 696E;
0C6C: 0069;
0C6D: 6570;
0C6E: 6572;
0C6F: 6F70;
0C70: 6E6C;
0C71: 6E65;
0C72: 6569;
0C73: 7320;
0C74: 6574;
0C75: 616B;
0C76: 7000;
0C77: 7265;
0C78: 7065;
0C79: 6C6F;
0C7A: 656E;
0C7B: 696E;
0C7C: 2065;
0C7D: 6170;
0C7E: 716D;
0C7F: 6974;
0C80: 7420;
0C81: 6B65;
0C82: 7473;
0C83: 6D6F;
0C84: 7020;
0C85: 6F72;
0C86: 7267;
0C87: 6D61;
0C88: 006D;
0C89: 656E;
0C8A: 2074;
0C8B: 656D;
0C8C: 7473;
0C8D: 2061;
0C8E: 6C64;
0C8F: 2071;
0C90: 6570;
0C91: 6572;
0C92: 656D;
0C93: 6E6E;
0C94: 6879;
0C95: 7000;
0C96: 726F;
0C97: 6471;
0C98: 6B6F;
0C99: 6220;
0C9A: 6C6F;
0C9B: 7B78;
0C9C: 0F65;
0C9D: 4520;
0C9E: 2D2B;
0C9F: 3833;
0CA0: 7A00;
0CA1: 7061;
0CA2: 6572;
0CA3: 657D;
0CA4: 6E6E;
0CA5: 6A79;
0CA6: 6120;
0CA7: 7264;
0CA8: 7365;
0CA9: 7720;
0CAA: 6620;
0CAB: 6E75;
0CAC: 636B;
0CAD: 6969;
0CAE: 200F;
0CAF: 5846;
0CB0: 7000;
0CB1: 706F;
0CB2: 7479;
0CB3: 616B;
0CB4: 6420;
0CB5: 6C65;
0CB6: 6E65;
0CB7: 7169;
0CB8: 6E20;
0CB9: 2061;
0CBA: 756E;
0CBB: 786C;
0CBC: 6E00;
0CBD: 6465;
0CBE: 706F;
0CBF: 7375;
0CC0: 6974;
0CC1: 796D;
0CC2: 206A;
0CC3: 6F70;
0CC4: 616B;
0CC5: 617A;
0CC6: 6574;
0CC7: 786C;
0CC8: 7320;
0CC9: 6574;
0CCA: 6570;
0CCB: 696E;
0CCC: 7300;
0CCD: 696C;
0CCE: 6B7B;
0CCF: 6D6F;
0CD0: 6D20;
0CD1: 6F6E;
0CD2: 6F67;
0CD3: 7320;
0CD4: 6D69;
0CD5: 6F77;
0CD6: 6F6C;
0CD7: 2077;
0CD8: 6F77;
0CD9: 7720;
0CDA: 6F68;
0CDB: 6E64;
0CDC: 6879;
0CDD: 6420;
0CDE: 6E61;
0CDF: 796E;
0CE0: 0068;
0CE1: 6F6B;
0CE2: 6572;
0CE3: 786E;
0CE4: 6B20;
0CE5: 6177;
0CE6: 7264;
0CE7: 7461;
0CE8: 796E;
0CE9: 206A;
0CEA: 7A69;
0CEB: 6F20;
0CEC: 7274;
0CED: 6369;
0CEE: 7461;
0CEF: 6C65;
0CF0: 6E78;
0CF1: 676F;
0CF2: 206F;
0CF3: 697E;
0CF4: 6C73;
0CF5: 0061;
0CF6: 6570;
0CF7: 6572;
0CF8: 6F70;
0CF9: 6E6C;
0CFA: 6E65;
0CFB: 6569;
0CFC: 7720;
0CFD: 6F68;
0CFE: 6E64;
0CFF: 676F;
0D00: 206F;
0D01: 7562;
0D02: 6566;
0D03: 6172;
0D04: 6C00;
0D05: 676F;
0D06: 7261;
0D07: 6669;
0D08: 206D;
0D09: 756E;
0D0A: 716C;
0D0B: 6920;
0D0C: 696C;
0D0D: 6F20;
0D0E: 7274;
0D0F: 6369;
0D10: 7461;
0D11: 6C65;
0D12: 6E78;
0D13: 676F;
0D14: 206F;
0D15: 697E;
0D16: 6C73;
0D17: 0061;
0D18: 2077;
0D19: 7566;
0D1A: 6B6E;
0D1B: 6963;
0D1C: 6871;
0D1D: 200F;
0D1E: 4146;
0D1F: 4953;
0D20: 0E4E;
0D21: 6920;
0D22: 696C;
0D23: 200F;
0D24: 4146;
0D25: 4F43;
0D26: 0E53;
0D27: 6120;
0D28: 6772;
0D29: 6D75;
0D2A: 6E65;
0D2B: 2074;
0D2C: 6F70;
0D2D: 6D20;
0D2E: 646F;
0D2F: 6C75;
0D30: 2060;
0D31: 6F62;
0D32: 786C;
0D33: 657B;
0D34: 3120;
0D35: 6E00;
0D36: 7365;
0D37: 7D75;
0D38: 7365;
0D39: 7774;
0D3A: 6075;
0D3B: 657D;
0D3C: 2065;
0D3D: 7375;
0D3E: 7274;
0D3F: 6A6F;
0D40: 7473;
0D41: 6F77;
0D42: 6F00;
0D43: 697B;
0D44: 6B62;
0D45: 2061;
0D46: 7777;
0D47: 646F;
0D48: 0061;
0D49: 7270;
0D4A: 776F;
0D4B: 7265;
0D4C: 7478;
0D4D: 2065;
0D4E: 7375;
0D4F: 7274;
0D50: 6A6F;
0D51: 7473;
0D52: 6F77;
0D53: 7720;
0D54: 6F77;
0D55: 6164;
0D56: 7000;
0D57: 6F72;
0D58: 6577;
0D59: 7872;
0D5A: 6574;
0D5B: 7520;
0D5C: 7473;
0D5D: 6F72;
0D5E: 736A;
0D5F: 7774;
0D60: 206F;
0D61: 7977;
0D62: 6F77;
0D63: 6164;
0D64: 7700;
0D65: 7265;
0D66: 6973;
0D67: 2071;
0D68: 6D20;
0D69: 7C69;
0D6A: 3A74;
0D6B: 3120;
0D6C: 3839;
0D6D: 0035;
0D6E: 9582;
0D6F: 00A1;
0D70: 8C42;
0D71: 1C82;
0D72: C1F0;
0D73: 9484;
0D74: 8984;
0D75: 8BCA;
0D76: 02FC;
0D77: 89A2;
0D78: 0A0D;
0D79: 899A;
0D7A: 1126;
0D7B: 15C0;
0D7C: DB08;
0D7D: 9404;
0D7E: 8988;
0D7F: 8BC8;
0D80: 02FC;
0D81: 1584;
0D82: 0077;
0D83: EB2A;
0D84: 0A0C;
0D85: 0E0A;
0D86: 7764;
0D87: 6B75;
0D88: 6172;
0D89: 6E74;
0D8A: 656F;
0D8B: 6E20;
0D8C: 7661;
0D8D: 7461;
0D8E: 6569;
0D8F: 7320;
0D90: 2F75;
0D91: 0D73;
0D92: 690A;
0D93: 696C;
0D94: 6C20;
0D95: 6260;
0D96: 6A6F;
0D97: 6B20;
0D98: 616C;
0D99: 6977;
0D9A: 697B;
0D9B: 0A0D;
0D9C: 2077;
0D9D: 7270;
0D9E: 636F;
0D9F: 7365;
0DA0: 6573;
0DA1: 7720;
0DA2: 7079;
0DA3: 6C6F;
0DA4: 656E;
0DA5: 696E;
0DA6: 2071;
0DA7: 7270;
0DA8: 676F;
0DA9: 6172;
0DAA: 6D6D;
0DAB: 0D79;
0DAC: 770A;
0DAD: 7A6F;
0DAE: 7277;
0DAF: 7D61;
0DB0: 6561;
0DB1: 2074;
0DB2: 6F66;
0DB3: 616B;
0DB4: 206C;
0DB5: 2077;
0DB6: 6964;
0DB7: 6C61;
0DB8: 676F;
0DB9: 0A0D;
0DBA: 730A;
0DBB: 2031;
0DBC: 2820;
0DBD: 7573;
0DBE: 612F;
0DBF: 2029;
0DC0: 202D;
0DC1: 7270;
0DC2: 6F69;
0DC3: 7473;
0DC4: 6E61;
0DC5: 776F;
0DC6: 0A0D;
0DC7: 7261;
0DC8: 2031;
0DC9: 7328;
0DCA: 2F75;
0DCB: 2972;
0DCC: 2D20;
0DCD: 7020;
0DCE: 6F72;
0DCF: 6F64;
0DD0: 766C;
0DD1: 6E65;
0DD2: 6569;
0DD3: 0A0D;
0DD4: 730A;
0DD5: 2F75;
0DD6: 2073;
0DD7: 202D;
0DD8: 6572;
0DD9: 7473;
0DDA: 7261;
0DDB: 2074;
0DDC: 2077;
0DDD: 6964;
0DDE: 6C61;
0DDF: 676F;
0DE0: 0D65;
0DE1: 000A;
0DE2: 003A;
0DE3: 0119;
0DE4: 8054;
0DE5: 9022;
0DE6: 777C;
0DE7: 916D;
0DE8: 2280;
0DE9: 498D;
0DEA: 8680;
0DEB: 4146;
0DEC: 5342;
0DED: 3486;
0DEE: 4684;
0DEF: 4341;
0DF0: 534F;
0DF1: 3086;
0DF2: 372E;
0DF3: 3730;
0DF4: 3031;
0DF5: 8936;
0DF6: 3382;
0DF7: 312E;
0DF8: 3134;
0DF9: 3935;
0DFA: 8289;
0DFB: 4531;
0DFC: 3582;
0DFD: 3189;
0DFE: 332E;
0DFF: 008E;
0E00: 0016;
0E01: 0133;
0E02: 8054;
0E03: 9022;
0E04: 656E;
0E05: 7369;
0E06: 7270;
0E07: 7761;
0E08: 616E;
0E09: 2291;
0E0A: 8D21;
0E0B: 8E51;
0E0C: 0024;
0E0D: 014C;
0E0E: 8049;
0E0F: 4686;
0E10: 4253;
0E11: 8652;
0E12: 8C32;
0E13: 3031;
0E14: 8289;
0E15: 3633;
0E16: 3832;
0E17: 3038;
0E18: 8930;
0E19: 2E31;
0E1A: 8C32;
0E1B: 2E31;
0E1C: 8C34;
0E1D: 2E31;
0E1E: 8E32;
0E1F: 0016;
0E20: 0166;
0E21: 8054;
0E22: 9022;
0E23: 7369;
0E24: 7270;
0E25: 7761;
0E26: 616E;
0E27: 2291;
0E28: 8D21;
0E29: 8045;
0E2A: 8E41;
0E2B: 0010;
0E2C: 0219;
0E2D: 8049;
0E2E: 3186;
0E2F: 2682;
0E30: 3289;
0E31: 322E;
0E32: 528D;
0E33: 008E;
0E34: FC74;
0E35: 0233;
0E36: 8053;
0E37: 8F26;
0E38: 8426;
0E39: 5346;
0E3A: 5242;
0E3B: 3286;
0E3C: 268C;
0E3D: 3182;
0E3E: 8E89;
0E3F: 15C1;
0E40: DBC4;
0E41: 15C0;
0E42: 02E6;
0E43: 1450;
0E44: 2057;
0E45: DC7E;
0E46: 83FC;
0E47: 15F7;
0E48: 0014;
0E49: 263C;
0E4A: 15F7;
0E4B: 03A0;
0E4C: 2628;
0E4D: 15F7;
0E4E: 03F0;
0E4F: 2624;
0E50: 8A37;
0E51: 2613;
0E52: 0A01;
0E53: 1077;
0E54: 2608;
0E55: 8AB7;
0E56: 2609;
0E57: 0077;
0E58: E974;
0E59: 15DF;
0E5A: 8000;
0E5B: FDA0;
0E5C: 0E39;
0E5D: 0977;
0E5E: 01A4;
0E5F: 0A04;
0E60: 15C2;
0E61: FDA2;
0E62: 15C3;
0E63: FDA4;
0E64: 0A0B;
0E65: 0BC1;
0E66: 0301;
0E67: 0AC4;
0E68: 15C0;
0E69: 37DC;
0E6A: 0BC1;
0E6B: 8104;
0E6C: 910A;
0E6D: 0A8B;
0E6E: 7E03;
0E6F: 0087;
0E70: 790A;
0E71: 0A8B;
0E72: 7E03;
0E73: 0087;
0E74: 2057;
0E75: 011D;
0E76: 8228;
0E77: 2017;
0E78: 018F;
0E79: 8225;
0E7A: 1042;
0E7B: E5C1;
0E7C: 011D;
0E7D: 0B01;
0E7E: 0CC1;
0E7F: 1044;
0E80: 0CC1;
0E81: 0CC1;
0E82: 0CC1;
0E83: 6044;
0E84: 0CC1;
0E85: 6044;
0E86: 1081;
0E87: 1002;
0E88: 0C80;
0E89: 0C80;
0E8A: 0C80;
0E8B: 6004;
0E8C: 1080;
0E8D: 111F;
0E8E: FDA4;
0E8F: 45C2;
0E90: FFF8;
0E91: 9C82;
0E92: DD40;
0E93: 0BF7;
0E94: 2572;
0E95: 0304;
0E96: 8006;
0E97: 789F;
0E98: FDA2;
0E99: 0087;
0E9A: C09F;
0E9B: FDA2;
0E9C: 0087;
0E9D: D09F;
0E9E: FDA2;
0E9F: 0087;
0EA0: 0201;
0EA1: 0804;
0EA2: 2010;
0EA3: 8040;
0EA4: 0E39;
0EA5: 1066;
0EA6: A117;
0EA7: 008C;
0EA8: 0208;
0EA9: 89B0;
0EAA: 0E39;
0EAB: 1077;
0EAC: 253E;
0EAD: 89B0;
0EAE: 0E39;
0EAF: 1077;
0EB0: 2538;
0EB1: 1581;
0EB2: 0977;
0EB3: 00FA;
0EB4: 1045;
0EB5: 0BC5;
0EB6: 8179;
0EB7: 1177;
0EB8: 2524;
0EB9: 0A26;
0EBA: 0A03;
0EBB: 09F7;
0EBC: 0064;
0EBD: 0B05;
0EBE: 09F7;
0EBF: 005E;
0EC0: 1143;
0EC1: 0A05;
0EC2: 09F7;
0EC3: 0056;
0EC4: 0B03;
0EC5: 09F7;
0EC6: 0050;
0EC7: 10C5;
0EC8: 0A03;
0EC9: 010C;
0ECA: 09F7;
0ECB: 002C;
0ECC: 20C5;
0ECD: 0461;
0ECE: 1144;
0ECF: 10C5;
0ED0: 1103;
0ED1: 09F7;
0ED2: 001E;
0ED3: 1144;
0ED4: 10C5;
0ED5: 1103;
0ED6: 60CE;
0ED7: 0A83;
0ED8: 60CE;
0ED9: 23B7;
0EDA: 24E0;
0EDB: 0503;
0EDC: E14E;
0EDD: 0AC5;
0EDE: E14E;
0EDF: 2143;
0EE0: 04E9;
0EE1: 014D;
0EE2: 09F7;
0EE3: 0016;
0EE4: 0B03;
0EE5: 09F7;
0EE6: 0010;
0EE7: 0B05;
0EE8: 09F7;
0EE9: 000A;
0EEA: 0B03;
0EEB: 09F7;
0EEC: 0004;
0EED: 0B05;
0EEE: 0087;
0EEF: 1DC0;
0EF0: 24B6;
0EF1: 1DC1;
0EF2: 24B4;
0EF3: 60C0;
0EF4: 6141;
0EF5: 09F7;
0EF6: FEFA;
0EF7: 0087;
0EF8: 0E39;
0EF9: 1066;
0EFA: 89B0;
0EFB: 0E39;
0EFC: 1066;
0EFD: A117;
0EFE: 008C;
0EFF: 0208;
0F00: 89B0;
0F01: 0E39;
0F02: 1077;
0F03: 2490;
0F04: 89B0;
0F05: 0E39;
0F06: 1077;
0F07: 248A;
0F08: 1581;
0F09: 1582;
0F0A: 0977;
0F0B: 004A;
0F0C: 15F7;
0F0D: 0001;
0F0E: 2478;
0F0F: 1043;
0F10: 8003;
0F11: 0B03;
0F12: 0B37;
0F13: 246E;
0F14: 0A83;
0F15: 15E6;
0F16: 0001;
0F17: 1085;
0F18: 8002;
0F19: 0B05;
0F1A: 0B0E;
0F1B: 0A85;
0F1C: 1DC1;
0F1D: 245E;
0F1E: 1177;
0F1F: 245A;
0F20: 1DC0;
0F21: 2454;
0F22: 1DC5;
0F23: 2452;
0F24: 09F7;
0F25: FE9C;
0F26: 6380;
0F27: 7F44;
0F28: 6DC1;
0F29: 2442;
0F2A: 7ECB;
0F2B: 1037;
0F2C: 243E;
0F2D: 1077;
0F2E: 243C;
0F2F: 0BD6;
0F30: 0087;
0F31: 13A6;
0F32: 15F6;
0F33: DE80;
0F34: 0002;
0F35: 1126;
0F36: 10E6;
0F37: 1026;
0F38: 1166;
0F39: 1D85;
0F3A: 0008;
0F3B: 09DE;
0F3C: 1580;
0F3D: 1583;
0F3E: 1584;
0F3F: 1585;
0F40: 0087;
0F41: 0E39;
0F42: 6077;
0F43: 2410;
0F44: 89B0;
0F45: 0E39;
0F46: 6077;
0F47: 240A;
0F48: 0977;
0F49: FFCE;
0F4A: 1DC0;
0F4B: 2400;
0F4C: 1DC1;
0F4D: 23FE;
0F4E: 09F7;
0F4F: FE48;
0F50: 0087;
0F51: 0E39;
0F52: 1077;
0F53: 23F0;
0F54: 89B0;
0F55: 0E39;
0F56: 1077;
0F57: 23EA;
0F58: 0977;
0F59: FFAE;
0F5A: 1DC0;
0F5B: 23E0;
0F5C: 09F7;
0F5D: FE2C;
0F5E: 0087;
0F5F: 0E39;
0F60: 1077;
0F61: 23D8;
0F62: 0087;
0F63: 0E39;
0F64: 6077;
0F65: 23CC;
0F66: 89B0;
0F67: 0E39;
0F68: 6077;
0F69: 23C6;
0F6A: 0087;
0F6B: 0E39;
0F6C: 1077;
0F6D: 23BC;
0F6E: 89B0;
0F6F: 0E39;
0F70: 1077;
0F71: 23B6;
0F72: 0087;
0F73: 0E39;
0F74: 1066;
0F75: 89B0;
0F76: 0E39;
0F77: 1066;
0F78: A117;
0F79: 008C;
0F7A: 0208;
0F7B: 89B0;
0F7C: 0E39;
0F7D: 1077;
0F7E: 239A;
0F7F: 89B0;
0F80: 0E39;
0F81: 1077;
0F82: 2394;
0F83: 1581;
0F84: 1582;
0F85: 0977;
0F86: FF54;
0F87: 1043;
0F88: 1085;
0F89: 6DC5;
0F8A: 2382;
0F8B: 6DC3;
0F8C: 2380;
0F8D: 0116;
0F8E: 0E39;
0F8F: 1066;
0F90: 89B0;
0F91: 0E39;
0F92: 1066;
0F93: A117;
0F94: 008C;
0F95: 0208;
0F96: 89B0;
0F97: 0E39;
0F98: 1077;
0F99: 2364;
0F9A: 89B0;
0F9B: 0E39;
0F9C: 1077;
0F9D: 235E;
0F9E: 1581;
0F9F: 1582;
0FA0: 0977;
0FA1: FF1E;
0FA2: 1043;
0FA3: 1085;
0FA4: 1DC0;
0FA5: 234C;
0FA6: 1DC1;
0FA7: 234A;
0FA8: 1177;
0FA9: 2344;
0FAA: 10F7;
0FAB: 2342;
0FAC: 09F7;
0FAD: FD8C;
0FAE: 15C2;
0FAF: 0296;
0FB0: 15CA;
0FB1: 0001;
0FB2: E043;
0FB3: 0402;
0FB4: 0B03;
0FB5: 0B0A;
0FB6: 15E2;
0FB7: 0001;
0FB8: E005;
0FB9: 0402;
0FBA: 0B05;
0FBB: 0B0A;
0FBC: 1162;
0FBD: 10E2;
0FBE: 2143;
0FBF: 0403;
0FC0: 1142;
0FC1: 10C5;
0FC2: 1083;
0FC3: 15C4;
0FC4: 000F;
0FC5: 0A02;
0FC6: 0CC3;
0FC7: 20C5;
0FC8: 0502;
0FC9: E143;
0FCA: 0A82;
0FCB: 0CC2;
0FCC: 7F07;
0FCD: 15C3;
0FCE: 8000;
0FCF: 10A6;
0FD0: 2DF7;
0FD1: 22EC;
0FD2: 22EC;
0FD3: 0617;
0FD4: 1DC5;
0FD5: 22E6;
0FD6: 030A;
0FD7: 0BF7;
0FD8: 22E4;
0FD9: 8109;
0FDA: 6383;
0FDB: 0B41;
0FDC: 6DC0;
0FDD: 22D8;
0FDE: 09F7;
0FDF: FD28;
0FE0: 7F47;
0FE1: 0BD6;
0FE2: 0087;
0FE3: 6383;
0FE4: 0B81;
0FE5: 6DC0;
0FE6: 22C6;
0FE7: 09F7;
0FE8: FD16;
0FE9: 7F47;
0FEA: 01F6;
0FEB: 1DC5;
0FEC: 22B6;
0FED: 0BF7;
0FEE: 22B6;
0FEF: 8108;
0FF0: 6383;
0FF1: 0B40;
0FF2: 6DC1;
0FF3: 22AE;
0FF4: 09F7;
0FF5: FCFC;
0FF6: 7F47;
0FF7: 01E9;
0FF8: 6383;
0FF9: 0B80;
0FFA: 6DC1;
0FFB: 229E;
0FFC: 09F7;
0FFD: FCEC;
0FFE: 7F47;
0FFF: 01E1;
END;
